// Jest Snapshot v1, https://goo.gl/fbAQLP

exports[`Quiz should match snapshot: with questions 1`] = `
<RNCSafeAreaView
  style={
    Array [
      Object {
        "paddingVertical": 10,
      },
      Object {
        "flex": 1,
      },
    ]
  }
>
  <RCTScrollView
    contentContainerStyle={
      Object {
        "flexGrow": 1,
        "paddingHorizontal": 20,
      }
    }
  >
    <View>
      <Text
        style={
          Object {
            "fontFamily": "Helvetica",
            "fontSize": 24,
            "fontWeight": "600",
            "lineHeight": 36,
            "textAlign": "center",
          }
        }
      />
      <View
        style={
          Object {
            "flex": 1,
            "justifyContent": "center",
          }
        }
      >
        <View
          style={
            Object {
              "borderColor": "#24292f",
              "borderRadius": 8,
              "borderWidth": 2,
              "padding": 10,
            }
          }
        >
          <Text
            style={
              Object {
                "color": "#24292f",
                "fontFamily": "Helvetica",
                "fontSize": 16,
                "fontWeight": "400",
                "lineHeight": 24,
                "textAlign": "center",
              }
            }
          >
            Question?
          </Text>
        </View>
        <Text
          style={
            Object {
              "marginTop": 10,
              "textAlign": "center",
            }
          }
        >
          1 of 2
        </Text>
      </View>
      <View>
        <View
          accessible={true}
          focusable={true}
          onClick={[Function]}
          onResponderGrant={[Function]}
          onResponderMove={[Function]}
          onResponderRelease={[Function]}
          onResponderTerminate={[Function]}
          onResponderTerminationRequest={[Function]}
          onStartShouldSetResponder={[Function]}
          style={
            Object {
              "alignItems": "center",
              "backgroundColor": "#159957",
              "borderRadius": 8,
              "height": 48,
              "justifyContent": "center",
              "marginBottom": 10,
              "opacity": 1,
            }
          }
        >
          <Text
            style={
              Object {
                "color": "#fff",
                "fontFamily": "Helvetica",
                "fontSize": 16,
                "fontWeight": "400",
                "lineHeight": 24,
                "textTransform": "uppercase",
              }
            }
          >
            True
          </Text>
        </View>
        <View
          accessible={true}
          focusable={true}
          onClick={[Function]}
          onResponderGrant={[Function]}
          onResponderMove={[Function]}
          onResponderRelease={[Function]}
          onResponderTerminate={[Function]}
          onResponderTerminationRequest={[Function]}
          onStartShouldSetResponder={[Function]}
          style={
            Object {
              "alignItems": "center",
              "backgroundColor": "#ea4f48",
              "borderRadius": 8,
              "height": 48,
              "justifyContent": "center",
              "opacity": 1,
            }
          }
        >
          <Text
            style={
              Object {
                "color": "#fff",
                "fontFamily": "Helvetica",
                "fontSize": 16,
                "fontWeight": "400",
                "lineHeight": 24,
                "textTransform": "uppercase",
              }
            }
          >
            False
          </Text>
        </View>
      </View>
    </View>
  </RCTScrollView>
</RNCSafeAreaView>
`;

exports[`Quiz should match snapshot: without questions 1`] = `
<RNCSafeAreaView
  style={
    Array [
      Object {
        "paddingVertical": 10,
      },
      Object {
        "flex": 1,
      },
    ]
  }
>
  <View
    style={
      Object {
        "alignItems": "center",
        "flex": 1,
        "justifyContent": "center",
      }
    }
  >
    <ActivityIndicator
      animating={true}
      color="#155799"
      hidesWhenStopped={true}
      size="large"
    />
  </View>
</RNCSafeAreaView>
`;
